%YAML 1.1
%TAG !u! tag:unity3d.com,2011:
--- !u!114 &11400000
MonoBehaviour:
  m_ObjectHideFlags: 0
  m_CorrespondingSourceObject: {fileID: 0}
  m_PrefabInstance: {fileID: 0}
  m_PrefabAsset: {fileID: 0}
  m_GameObject: {fileID: 0}
  m_Enabled: 1
  m_EditorHideFlags: 0
  m_Script: {fileID: 11500000, guid: 79ba0b7cc7b451a4b9b9f4aa7ef84853, type: 3}
  m_Name: StoneBoxData
  m_EditorClassIdentifier: 
  name: Stone Box
  isStatic: 1
  Health: 1
