%YAML 1.1
%TAG !u! tag:unity3d.com,2011:
--- !u!1001 &4308654280558759543
PrefabInstance:
  m_ObjectHideFlags: 0
  serializedVersion: 2
  m_Modification:
    m_TransformParent: {fileID: 0}
    m_Modifications:
    - target: {fileID: 5012219777035308766, guid: bd023aeb979cf764091f486c7bd1312a,
        type: 3}
      propertyPath: m_Cubes.Array.size
      value: 3
      objectReference: {fileID: 0}
    - target: {fileID: 5012219777035308766, guid: bd023aeb979cf764091f486c7bd1312a,
        type: 3}
      propertyPath: m_Cubes.Array.data[3]
      value: 
      objectReference: {fileID: 0}
    - target: {fileID: 6312309109190093389, guid: bd023aeb979cf764091f486c7bd1312a,
        type: 3}
      propertyPath: m_LocalPosition.x
      value: 0
      objectReference: {fileID: 0}
    - target: {fileID: 6312309109190093389, guid: bd023aeb979cf764091f486c7bd1312a,
        type: 3}
      propertyPath: m_LocalRotation.x
      value: 0
      objectReference: {fileID: 0}
    - target: {fileID: 6312309109190093389, guid: bd023aeb979cf764091f486c7bd1312a,
        type: 3}
      propertyPath: m_LocalRotation.y
      value: 0
      objectReference: {fileID: 0}
    - target: {fileID: 6312309109190093389, guid: bd023aeb979cf764091f486c7bd1312a,
        type: 3}
      propertyPath: m_LocalRotation.z
      value: 0
      objectReference: {fileID: 0}
    - target: {fileID: 6312309109190093389, guid: bd023aeb979cf764091f486c7bd1312a,
        type: 3}
      propertyPath: m_LocalRotation.w
      value: 1
      objectReference: {fileID: 0}
    - target: {fileID: 6312309109190093389, guid: bd023aeb979cf764091f486c7bd1312a,
        type: 3}
      propertyPath: m_RootOrder
      value: 0
      objectReference: {fileID: 0}
    - target: {fileID: 6312309109190093389, guid: bd023aeb979cf764091f486c7bd1312a,
        type: 3}
      propertyPath: m_LocalEulerAnglesHint.x
      value: 0
      objectReference: {fileID: 0}
    - target: {fileID: 6312309109190093389, guid: bd023aeb979cf764091f486c7bd1312a,
        type: 3}
      propertyPath: m_LocalEulerAnglesHint.y
      value: 0
      objectReference: {fileID: 0}
    - target: {fileID: 6312309109190093389, guid: bd023aeb979cf764091f486c7bd1312a,
        type: 3}
      propertyPath: m_LocalEulerAnglesHint.z
      value: 0
      objectReference: {fileID: 0}
    - target: {fileID: 7485734705384476429, guid: bd023aeb979cf764091f486c7bd1312a,
        type: 3}
      propertyPath: m_RootOrder
      value: 9
      objectReference: {fileID: 0}
    - target: {fileID: 8477967229580770368, guid: bd023aeb979cf764091f486c7bd1312a,
        type: 3}
      propertyPath: m_Name
      value: Template (0)
      objectReference: {fileID: 0}
    m_RemovedComponents: []
  m_SourcePrefab: {fileID: 100100000, guid: bd023aeb979cf764091f486c7bd1312a, type: 3}
